{
  "label": "Tabelle  (DDB)",
  "entries": {
    "Aberrant Dragonmark: Aberrant Dragonmark Flaws": {
      "name": "Marchio del drago aberrante: difetti del marchio del drago aberrante",
      "description": ""
    },
    "Armor of Resistance: Damage Type": {
      "name": "Armatura di resistenza: tipo di danno",
      "description": ""
    },
    "Background: Acolyte: Bond": {
      "name": "Background: Accolito: Legame",
      "description": ""
    },
    "Background: Acolyte: Flaw": {
      "name": "Background: Accolito: Difetto",
      "description": ""
    },
    "Background: Acolyte: Ideal": {
      "name": "Background: Accolito: Ideale",
      "description": ""
    },
    "Background: Acolyte: Personality Trait": {
      "name": "Background: Accolito: tratto della personalità",
      "description": ""
    },
    "Background: Charlatan: Bond": {
      "name": "Background: Ciarlatano: Bond",
      "description": ""
    },
    "Background: Charlatan: Flaw": {
      "name": "Background: Ciarlatano: Difetto",
      "description": ""
    },
    "Background: Charlatan: Ideal": {
      "name": "Background: Ciarlatano: Ideale",
      "description": ""
    },
    "Background: Charlatan: Personality Trait": {
      "name": "Background: Ciarlatano: tratto della personalità",
      "description": ""
    },
    "Background: Charlatan: Scam": {
      "name": "Background: Ciarlatano: truffa",
      "description": ""
    },
    "Background: Criminal / Spy: Bond": {
      "name": "Background: Criminale/Spia: Bond",
      "description": ""
    },
    "Background: Criminal / Spy: Flaw": {
      "name": "Background: criminale/spia: difetto",
      "description": ""
    },
    "Background: Criminal / Spy: Ideal": {
      "name": "Background: criminale/spia: ideale",
      "description": ""
    },
    "Background: Criminal / Spy: Personality Trait": {
      "name": "Background: criminale/spia: tratto della personalità",
      "description": ""
    },
    "Background: Criminal / Spy: Specialty": {
      "name": "Background: Criminale/Spia: Specialità",
      "description": ""
    },
    "Background: Entertainer: Bond": {
      "name": "Background: Intrattenitore: Bond",
      "description": ""
    },
    "Background: Entertainer: Entertainer Routine": {
      "name": "Background: Intrattenitore: Routine dell'intrattenitore",
      "description": ""
    },
    "Background: Entertainer: Flaw": {
      "name": "Background: Intrattenitore: Difetto",
      "description": ""
    },
    "Background: Entertainer: Ideal": {
      "name": "Background: Intrattenitore: Ideale",
      "description": ""
    },
    "Background: Entertainer: Personality Trait": {
      "name": "Background: Intrattenitore: tratto della personalità",
      "description": ""
    },
    "Background: Folk Hero: Bond": {
      "name": "Background: Eroe popolare: Bond",
      "description": ""
    },
    "Background: Folk Hero: Defining Event": {
      "name": "Background: Eroe popolare: evento determinante",
      "description": ""
    },
    "Background: Folk Hero: Flaw": {
      "name": "Background: Eroe popolare: Difetto",
      "description": ""
    },
    "Background: Folk Hero: Ideal": {
      "name": "Background: Eroe popolare: ideale",
      "description": ""
    },
    "Background: Folk Hero: Personality Trait": {
      "name": "Background: Eroe popolare: tratto della personalità",
      "description": ""
    },
    "Background: Gladiator: BOND": {
      "name": "Sfondo: Gladiatore: LEGAME",
      "description": ""
    },
    "Background: Gladiator: FLAW": {
      "name": "Sfondo: Gladiatore: DIFETTO",
      "description": ""
    },
    "Background: Gladiator: IDEAL": {
      "name": "Sfondo: Gladiatore: IDEALE",
      "description": ""
    },
    "Background: Gladiator: PERSONALITY TRAIT": {
      "name": "Background: Gladiatore: TRATTO DELLA PERSONALITÀ",
      "description": ""
    },
    "Background: Guild Artisan / Guild Merchant: Guild Business": {
      "name": "Background: Artigiano della gilda/Mercante della gilda: Affari della gilda",
      "description": ""
    },
    "Background: Haunted One: Harrowing Event": {
      "name": "Background: Stregato: Evento Straziante",
      "description": ""
    },
    "Background: Hermit: Life of Seclusion": {
      "name": "Background: Eremita: vita di isolamento",
      "description": ""
    },
    "Background: Outlander: Origin": {
      "name": "Sfondo: Outlander: Origin",
      "description": ""
    },
    "Background: Sage: Bond": {
      "name": "Sfondo: Salvia: Legame",
      "description": ""
    },
    "Background: Sage: Flaw": {
      "name": "Sfondo: Salvia: Difetto",
      "description": ""
    },
    "Background: Sage: Ideal": {
      "name": "Fondo: Salvia: Ideale",
      "description": ""
    },
    "Background: Sage: Personality Trait": {
      "name": "Background: Sage: tratto della personalità",
      "description": ""
    },
    "Background: Sage: Specialty": {
      "name": "Background: Salvia: specialità",
      "description": ""
    },
    "Background: Soldier: Bond": {
      "name": "Sfondo: Soldato: Bond",
      "description": ""
    },
    "Background: Soldier: Flaw": {
      "name": "Background: Soldato: Difetto",
      "description": ""
    },
    "Background: Soldier: Ideal": {
      "name": "Background: Soldato: Ideale",
      "description": ""
    },
    "Background: Soldier: Personality Trait": {
      "name": "Background: Soldato: tratto della personalità",
      "description": ""
    },
    "Background: Soldier: Specialty": {
      "name": "Background: Soldato: Specialità",
      "description": ""
    },
    "Background: Urchin: Bond": {
      "name": "Sfondo: Monello: Bond",
      "description": ""
    },
    "Background: Urchin: Flaw": {
      "name": "Sfondo: Riccio: Difetto",
      "description": ""
    },
    "Background: Urchin: Ideal": {
      "name": "Sfondo: Riccio: Ideale",
      "description": ""
    },
    "Background: Urchin: Personality Trait": {
      "name": "Background: Urchin: tratto della personalità",
      "description": ""
    },
    "Bag of Beans: Effect": {
      "name": "Sacco di fagioli: effetto",
      "description": ""
    },
    "Bag of Tricks: Gray Bag of Tricks": {
      "name": "Borsa dei Trucchi: Borsa dei Trucchi Grigia",
      "description": ""
    },
    "Bag of Tricks: Rust Bag of Tricks": {
      "name": "Borsa dei Trucchi: Borsa dei Trucchi Ruggine",
      "description": ""
    },
    "Bag of Tricks: Tan Bag of Tricks": {
      "name": "Borsa dei Trucchi: Borsa dei Trucchi marrone chiaro",
      "description": ""
    },
    "Candle of Invocation: Alignment": {
      "name": "Candela dell'Invocazione: Allineamento",
      "description": ""
    },
    "Efreeti Bottle: Effect": {
      "name": "Bottiglia di Efreeti: effetto",
      "description": ""
    },
    "Feather Token: Feather Token": {
      "name": "Segnalino piuma: segnalino piuma",
      "description": ""
    },
    "Gray Bag of Tricks: Gray Bag of Tricks": {
      "name": "Borsa dei trucchi grigia: Borsa dei trucchi grigia",
      "description": ""
    },
    "Horn of Valhalla: Four types of horn of Valhalla are known to exist, each made of a different metal. The horn's type determines how many berserkers answer its summons, as well as the requirement for its use. The GM chooses the horn's type or determines it randomly.": {
      "name": "Corno del Valhalla: Si sa che esistono quattro tipi di corno del Valhalla, ciascuno realizzato con un metallo diverso. ",
      "description": ""
    },
    "Iron Flask: Contents": {
      "name": "Pallone di ferro: contenuto",
      "description": ""
    },
    "Manual of Golems: This tome contains information and incantations necessary to make a particular type of golem. To decipher and use the manual, you must be a spellcaster with at least two 5th-level spell slots. A creature that can't use a manual of golems and attempts to read it takes 6d6 psychic damage.": {
      "name": "Manuale dei Golem: questo tomo contiene informazioni e incantesimi necessari per creare un particolare tipo di golem. ",
      "description": ""
    },
    "Necklace of Prayer Beads: Six types of magic beads exist. The GM decides the type of each bead on the necklace or determines it randomly. A necklace can have more than one bead of the same type. To use one, you must be wearing the necklace. Each bead contains a spell that you can cast from it as a bonus action (using your spell save DC if a save is necessary). Once a magic bead's spell is cast, that bead can't be used again until the next dawn.": {
      "name": "Collana di grani di preghiera: esistono sei tipi di grani magici. ",
      "description": ""
    },
    "Potion of Resistance: Damage Type": {
      "name": "Pozione di Resistenza: Tipo di Danno",
      "description": ""
    },
    "Ring of Resistance: You have resistance to one damage type while wearing this ring. The gem in the ring indicates the type, which the DM chooses or determines randomly.": {
      "name": "Anello della Resistenza: hai resistenza a un tipo di danno mentre indossi questo anello. ",
      "description": ""
    },
    "Robe of Useful Items: Patch": {
      "name": "Veste di oggetti utili: toppa",
      "description": ""
    },
    "Rust Bag of Tricks: Rust Bag of Tricks": {
      "name": "Borsa dei trucchi antiruggine: Borsa dei trucchi antiruggine",
      "description": ""
    },
    "Spell Scroll: Scroll Mishap": {
      "name": "Pergamena dell'incantesimo: Scorrimento incidente",
      "description": ""
    },
    "Sphere of Annihilation: Result": {
      "name": "Sfera dell'annientamento: risultato",
      "description": ""
    },
    "Tan Bag of Tricks: Tan Bag of Tricks": {
      "name": "Borsa Tan di Trucchi: Borsa Tan di Trucchi",
      "description": ""
    },
    "Wand of Wonder: Effect": {
      "name": "Bacchetta delle meraviglie: effetto",
      "description": ""
    }
  }
}